\relax 
\providecommand\hyper@newdestlabel[2]{}
\providecommand\BKM@entry[2]{}
\bibstyle{biblatex}
\bibdata{report_cifratura_core_platypusllc-blx,bibliography}
\citation{biblatex-control}
\providecommand\HyperFirstAtBeginDocument{\AtBeginDocument}
\HyperFirstAtBeginDocument{\ifx\hyper@anchor\@undefined
\global\let\oldcontentsline\contentsline
\gdef\contentsline#1#2#3#4{\oldcontentsline{#1}{#2}{#3}}
\global\let\oldnewlabel\newlabel
\gdef\newlabel#1#2{\newlabelxx{#1}#2}
\gdef\newlabelxx#1#2#3#4#5#6{\oldnewlabel{#1}{{#2}{#3}}}
\AtEndDocument{\ifx\hyper@anchor\@undefined
\let\contentsline\oldcontentsline
\let\newlabel\oldnewlabel
\fi}
\fi}
\global\let\hyper@last\relax 
\gdef\HyperFirstAtBeginDocument#1{#1}
\providecommand\HyField@AuxAddToFields[1]{}
\providecommand\HyField@AuxAddToCoFields[2]{}
\BKM@entry{id=1,dest={73656374696F6E2E31},srcline={1}}{4F6269657474697669}
\citation{web:platypusllc}
\citation{web:UdpPacketForging}
\citation{web:UdpMITM}
\@writefile{toc}{\boolfalse {citerequest}\boolfalse {citetracker}\boolfalse {pagetracker}\boolfalse {backtracker}\relax }
\@writefile{lof}{\boolfalse {citerequest}\boolfalse {citetracker}\boolfalse {pagetracker}\boolfalse {backtracker}\relax }
\@writefile{lot}{\boolfalse {citerequest}\boolfalse {citetracker}\boolfalse {pagetracker}\boolfalse {backtracker}\relax }
\select@language{italian}
\@writefile{toc}{\select@language{italian}}
\@writefile{lof}{\select@language{italian}}
\@writefile{lot}{\select@language{italian}}
\select@language{italian}
\@writefile{toc}{\select@language{italian}}
\@writefile{lof}{\select@language{italian}}
\@writefile{lot}{\select@language{italian}}
\@writefile{toc}{\contentsline {section}{\numberline {1}Obiettivi}{1}{section.1}}
\BKM@entry{id=2,dest={73756273656374696F6E2E312E31},srcline={30}}{506F73736962696C6520736F6C757A696F6E653A2041455320313238626974}
\citation{wiki:AES}
\BKM@entry{id=3,dest={73656374696F6E2E32},srcline={1}}{4D6F6469666963612064656C20436F7265204A617661}
\@writefile{toc}{\contentsline {subsection}{\numberline {1.1}Possibile soluzione: AES 128bit}{2}{subsection.1.1}}
\@writefile{toc}{\contentsline {section}{\numberline {2}Modifica del Core Java}{2}{section.2}}
\@writefile{lol}{\contentsline {lstlisting}{\numberline {1}Classe Java Dell'Encryptor}{3}{lstlisting.1}}
\citation{jcode:UdpServer}
\BKM@entry{id=4,dest={73656374696F6E2E33},srcline={1}}{526973756C746174692053706572696D656E74616C69}
\citation{web:wireshark}
\@writefile{toc}{\contentsline {section}{\numberline {3}Risultati Sperimentali}{5}{section.3}}
\@writefile{lof}{\contentsline {figure}{\numberline {1}{\ignorespaces Pacchetto prima della cifratura, in cui si notano comandi ASCII in chiaro}}{5}{figure.1}}
\BKM@entry{id=5,dest={73756273656374696F6E2E332E31},srcline={24}}{50657263656E7475616C6520646920706572646974612064656920706163636865747469}
\citation{doc:doubleSize}
\@writefile{lof}{\contentsline {figure}{\numberline {2}{\ignorespaces Pacchetto dopo la cifratura, in cui si hanno valori indistinti}}{6}{figure.2}}
\@writefile{toc}{\contentsline {subsection}{\numberline {3.1}Percentuale di perdita dei pacchetti}{6}{subsection.3.1}}
\@writefile{lof}{\contentsline {figure}{\numberline {3}{\ignorespaces Pacchetto dopo la cifratura, in cui si hanno valori indistinti}}{7}{figure.3}}
\BKM@entry{id=6,dest={73756273656374696F6E2E332E32},srcline={55}}{496E6372656D656E746F2064656C6C2720696E7465677269745C33343020646569206D65737361676769}
\BKM@entry{id=7,dest={73656374696F6E2E34},srcline={1}}{436F6E636C7573696F6E69}
\@writefile{lof}{\contentsline {figure}{\numberline {4}{\ignorespaces Varianza sulla distribuzione del success ratio dei pacchetti}}{8}{figure.4}}
\@writefile{toc}{\contentsline {subsection}{\numberline {3.2}Incremento dell' integrit\IeC {\`a} dei messaggi}{8}{subsection.3.2}}
\@writefile{toc}{\contentsline {section}{\numberline {4}Conclusioni}{8}{section.4}}
